<svg
  xmlns="http://www.w3.org/2000/svg"
  viewBox="0 0 21 21"
  aria-labelledby="title"
  width="1em"
  height="1em"
  fill="currentColor"
  id="icon-tools-colormap"
>
    <title>Color Map</title>
    <g id="icon-tools-colormap-group">
      <circle id="icon-tools-colormap-circleT" cx="50%" cy="33%" r="7" stroke-width="0"></circle>
      <circle id="icon-tools-colormap-circleL" cx="33%" cy="66%" r="6" fill="none" stroke-width="2"></circle>
      <circle id="icon-tools-colormap-circleR" cx="66%" cy="66%" r="7" opacity="0.8" stroke-width="0"></circle>
    </g>
  </svg>
